{
  "type": "network",
  "version": "1.0",
  "data": "data.json",
  "logo": {
    "file": "",
    "link": "",
    "text": ""
  },
  "text": {
    "more": "",
    "intro": "",
    "title": ""
  },
  "legend": {
    "edgeLabel": "",
    "colorLabel": "",
    "nodeLabel": ""
  },
  "features": {
    "search": true,
    "groupSelectorAttribute": "Modularity Class",
    "hoverBehavior": "default"
  },
  "informationPanel": {
    "groupByEdgeDirection": true,
    "imageAttribute": false
  },
  "sigma": {
    "drawingProperties": {
      "defaultEdgeType": "curve",
      "defaultHoverLabelBGColor": "#002147",
      "defaultLabelBGColor": "#ddd",
      "activeFontStyle": "bold",
      "defaultLabelColor": "#000",
      "labelThreshold": 10,
      "defaultLabelHoverColor": "#fff",
      "fontStyle": "bold",
      "hoverFontStyle": "bold",
      "defaultLabelSize": 14
    },
    "graphProperties": {
      "maxEdgeSize": 0.5,
      "minEdgeSize": 0.2,
      "minNodeSize": 1,
      "maxNodeSize": 7
    },
    "mouseProperties": {
      "maxRatio": 20,
      "minRatio": 0.75
    }
  }
}